…
---

    Code
      print(filter_fct)
    Output
      -- 5 Outliers were removed of 32 rows. -----------------------------------------
      
      # A tibble: 27 x 18
           mpg   cyl  disp    hp  drat    wt  qsec    vs    am  gear  carb     v1
       * <dbl> <dbl> <dbl> <dbl> <dbl> <dbl> <dbl> <dbl> <dbl> <dbl> <dbl>  <dbl>
       1  21       6  160    110  3.9   2.62  16.5     0     1     4     4 -0.560
       2  22.8     4  108     93  3.85  2.32  18.6     1     1     4     1  1.56 
       3  18.7     8  360    175  3.15  3.44  17.0     0     0     3     2  0.129
       4  18.1     6  225    105  2.76  3.46  20.2     1     0     3     1  1.72 
       5  14.3     8  360    245  3.21  3.57  15.8     0     0     3     4  0.461
       6  24.4     4  147.    62  3.69  3.19  20       1     0     4     2 -1.27 
       7  22.8     4  141.    95  3.92  3.15  22.9     1     0     4     2 -0.687
       8  19.2     6  168.   123  3.92  3.44  18.3     1     0     4     4 -0.446
       9  17.8     6  168.   123  3.92  3.44  18.9     1     0     4     4  1.22 
      10  16.4     8  276.   180  3.07  4.07  17.4     0     0     3     3  0.360
      # i 17 more rows
      # i 6 more variables: v2 <dbl>, v3 <lgl>, v12 <fct>, v13 <chr>, v14 <chr>,
      #   v15 <fct>
